2015-09-25 12:32:10.189 Tuurlijk Schatje[30690:9501939] DiskCookieStorage changing policy from 2 to 0, cookie file: file:///Users/ernst/Library/Developer/CoreSimulator/Devices/5E4E538E-222A-44DA-9E2F-E6392C97BCA9/data/Containers/Data/Application/58D579D5-3125-4B46-86DD-0E665E68417A/Library/Cookies/Cookies.binarycookies
2015-09-25 12:32:10.564 Tuurlijk Schatje[30690:9501939] Apache Cordova native platform version 3.9.1 is starting.
2015-09-25 12:32:10.564 Tuurlijk Schatje[30690:9501939] Multi-tasking -> Device: YES, App: YES
2015-09-25 12:32:10.579 Tuurlijk Schatje[30690:9501939] Unlimited access to network resources
2015-09-25 12:32:11.338 Tuurlijk Schatje[30690:9501939] Resetting plugins due to page load.
2015-09-25 12:32:11.583 Tuurlijk Schatje[30690:9501939] Finished load of: file:///Users/ernst/Library/Developer/CoreSimulator/Devices/5E4E538E-222A-44DA-9E2F-E6392C97BCA9/data/Containers/Bundle/Application/67886954-5419-485B-80A7-4FF46368AA88/Tuurlijk%20Schatje.app/www/index.html
2015-09-25 12:32:17.644 Tuurlijk Schatje[30690:9501939] Resetting plugins due to page load.
2015-09-25 12:32:17.704 Tuurlijk Schatje[30690:9501939] Finished load of: file:///Users/ernst/Library/Developer/CoreSimulator/Devices/5E4E538E-222A-44DA-9E2F-E6392C97BCA9/data/Containers/Bundle/Application/67886954-5419-485B-80A7-4FF46368AA88/Tuurlijk%20Schatje.app/www/index.html#
2015-09-25 12:34:27.348 Tuurlijk Schatje[30854:9509272] DiskCookieStorage changing policy from 2 to 0, cookie file: file:///Users/ernst/Library/Developer/CoreSimulator/Devices/5E4E538E-222A-44DA-9E2F-E6392C97BCA9/data/Containers/Data/Application/7FB5BC8E-2B24-4FBA-B3DE-B5A321AB7765/Library/Cookies/Cookies.binarycookies
2015-09-25 12:34:27.498 Tuurlijk Schatje[30854:9509272] Apache Cordova native platform version 3.9.1 is starting.
2015-09-25 12:34:27.498 Tuurlijk Schatje[30854:9509272] Multi-tasking -> Device: YES, App: YES
2015-09-25 12:34:27.502 Tuurlijk Schatje[30854:9509272] Unlimited access to network resources
2015-09-25 12:34:27.858 Tuurlijk Schatje[30854:9509272] Resetting plugins due to page load.
2015-09-25 12:34:27.985 Tuurlijk Schatje[30854:9509272] Finished load of: file:///Users/ernst/Library/Developer/CoreSimulator/Devices/5E4E538E-222A-44DA-9E2F-E6392C97BCA9/data/Containers/Bundle/Application/80C0922A-4D8D-4596-AE08-B9F2DB0089B9/Tuurlijk%20Schatje.app/www/index.html
2015-09-25 12:37:10.389 Tuurlijk Schatje[31028:9522426] DiskCookieStorage changing policy from 2 to 0, cookie file: file:///Users/ernst/Library/Developer/CoreSimulator/Devices/5E4E538E-222A-44DA-9E2F-E6392C97BCA9/data/Containers/Data/Application/FA4C4978-BD80-42AB-8BE3-C16AA9D3FC07/Library/Cookies/Cookies.binarycookies
2015-09-25 12:37:10.806 Tuurlijk Schatje[31028:9522426] Apache Cordova native platform version 3.9.1 is starting.
2015-09-25 12:37:10.807 Tuurlijk Schatje[31028:9522426] Multi-tasking -> Device: YES, App: YES
2015-09-25 12:37:10.828 Tuurlijk Schatje[31028:9522426] Unlimited access to network resources
2015-09-25 12:37:11.451 Tuurlijk Schatje[31028:9522426] [CDVTimer][statusbar] 152.823031ms
2015-09-25 12:37:11.451 Tuurlijk Schatje[31028:9522426] [CDVTimer][TotalPluginStartup] 153.012037ms
2015-09-25 12:37:11.809 Tuurlijk Schatje[31028:9522426] Resetting plugins due to page load.
2015-09-25 12:37:12.232 Tuurlijk Schatje[31028:9522426] Finished load of: file:///Users/ernst/Library/Developer/CoreSimulator/Devices/5E4E538E-222A-44DA-9E2F-E6392C97BCA9/data/Containers/Bundle/Application/4B43B01D-8B06-47D8-8CAA-7A7172658FBB/Tuurlijk%20Schatje.app/www/index.html
2015-09-25 13:29:37.101 Tuurlijk Schatje[31028:9565550] Communications error: <OS_xpc_error: <error: 0x2d7b5f4> { count = 1, contents =
	"XPCErrorDescription" => <string: 0x2d7b83c> { length = 22, contents = "Connection interrupted" }
}>
2015-09-26 13:31:48.272 Tuurlijk Schatje[31028:10238946] Terminating since there is no system app.
2015-09-26 13:31:48.330 Tuurlijk Schatje[31028:10238937] BSXPCMessage received error for message: Connection invalid
2015-10-01 12:38:58.518 Tuurlijk Schatje[8015:481252] DiskCookieStorage changing policy from 2 to 0, cookie file: file:///Users/ernst/Library/Developer/CoreSimulator/Devices/5E4E538E-222A-44DA-9E2F-E6392C97BCA9/data/Containers/Data/Application/8CB9B8EB-586D-477E-87DE-0A620957FE35/Library/Cookies/Cookies.binarycookies
2015-10-01 12:38:58.894 Tuurlijk Schatje[8015:481252] Apache Cordova native platform version 3.9.1 is starting.
2015-10-01 12:38:58.895 Tuurlijk Schatje[8015:481252] Multi-tasking -> Device: YES, App: YES
2015-10-01 12:38:58.914 Tuurlijk Schatje[8015:481252] Unlimited access to network resources
2015-10-01 12:38:59.569 Tuurlijk Schatje[8015:481252] [CDVTimer][statusbar] 182.950020ms
2015-10-01 12:38:59.570 Tuurlijk Schatje[8015:481252] [CDVTimer][TotalPluginStartup] 183.134973ms
2015-10-01 12:38:59.808 Tuurlijk Schatje[8015:481252] Resetting plugins due to page load.
2015-10-01 12:39:00.100 Tuurlijk Schatje[8015:481252] Finished load of: file:///Users/ernst/Library/Developer/CoreSimulator/Devices/5E4E538E-222A-44DA-9E2F-E6392C97BCA9/data/Containers/Bundle/Application/38498135-7021-48FB-B88E-5FC57370FBE8/Tuurlijk%20Schatje.app/www/index.html
2015-10-01 12:39:09.311 Tuurlijk Schatje[8015:481397] Communications error: <OS_xpc_error: <error: 0x2dd55f4> { count = 1, contents =
	"XPCErrorDescription" => <string: 0x2dd583c> { length = 22, contents = "Connection interrupted" }
}>
2015-10-01 12:44:45.356 Tuurlijk Schatje[8250:488775] DiskCookieStorage changing policy from 2 to 0, cookie file: file:///Users/ernst/Library/Developer/CoreSimulator/Devices/5E4E538E-222A-44DA-9E2F-E6392C97BCA9/data/Containers/Data/Application/39EA5B29-F2B8-4635-BC47-A03D5D98353E/Library/Cookies/Cookies.binarycookies
2015-10-01 12:44:45.447 Tuurlijk Schatje[8250:488775] Apache Cordova native platform version 3.9.1 is starting.
2015-10-01 12:44:45.447 Tuurlijk Schatje[8250:488775] Multi-tasking -> Device: YES, App: YES
2015-10-01 12:44:45.449 Tuurlijk Schatje[8250:488775] Unlimited access to network resources
2015-10-01 12:44:45.587 Tuurlijk Schatje[8250:488775] [CDVTimer][statusbar] 34.200013ms
2015-10-01 12:44:45.587 Tuurlijk Schatje[8250:488775] [CDVTimer][TotalPluginStartup] 34.407973ms
2015-10-01 12:44:45.651 Tuurlijk Schatje[8250:488775] Resetting plugins due to page load.
2015-10-01 12:44:45.782 Tuurlijk Schatje[8250:488775] Finished load of: file:///Users/ernst/Library/Developer/CoreSimulator/Devices/5E4E538E-222A-44DA-9E2F-E6392C97BCA9/data/Containers/Bundle/Application/DD80383B-A92B-4250-8FF6-6BD61171F0D0/Tuurlijk%20Schatje.app/www/index.html
2015-10-01 12:45:01.245 Tuurlijk Schatje[8250:488775] Resetting plugins due to page load.
2015-10-01 12:45:01.314 Tuurlijk Schatje[8250:488775] Finished load of: file:///Users/ernst/Library/Developer/CoreSimulator/Devices/5E4E538E-222A-44DA-9E2F-E6392C97BCA9/data/Containers/Bundle/Application/DD80383B-A92B-4250-8FF6-6BD61171F0D0/Tuurlijk%20Schatje.app/www/index.html#
2015-10-01 12:45:03.172 Tuurlijk Schatje[8250:488908] Terminating since there is no system app.
2015-10-02 10:20:41.668 Tuurlijk Schatje[14809:610454] DiskCookieStorage changing policy from 2 to 0, cookie file: file:///Users/ernst/Library/Developer/CoreSimulator/Devices/5E4E538E-222A-44DA-9E2F-E6392C97BCA9/data/Containers/Data/Application/14BA4733-AC83-4B4A-9375-9CFB724B5EAB/Library/Cookies/Cookies.binarycookies
2015-10-02 10:20:42.015 Tuurlijk Schatje[14809:610454] Apache Cordova native platform version 3.9.1 is starting.
2015-10-02 10:20:42.016 Tuurlijk Schatje[14809:610454] Multi-tasking -> Device: YES, App: YES
2015-10-02 10:20:42.035 Tuurlijk Schatje[14809:610454] Unlimited access to network resources
2015-10-02 10:20:42.677 Tuurlijk Schatje[14809:610454] [CDVTimer][statusbar] 186.357021ms
2015-10-02 10:20:42.677 Tuurlijk Schatje[14809:610454] [CDVTimer][TotalPluginStartup] 186.565995ms
2015-10-02 10:20:42.933 Tuurlijk Schatje[14809:610454] Resetting plugins due to page load.
2015-10-02 10:20:43.217 Tuurlijk Schatje[14809:610454] Finished load of: file:///Users/ernst/Library/Developer/CoreSimulator/Devices/5E4E538E-222A-44DA-9E2F-E6392C97BCA9/data/Containers/Bundle/Application/CCF1AE3A-958E-4835-A267-E4AC7EB0192A/Tuurlijk%20Schatje.app/www/index.html
2015-10-02 10:20:43.825 Tuurlijk Schatje[14809:610454] THREAD WARNING: ['StatusBar'] took '14.432129' ms. Plugin should use a background thread.
2015-10-02 10:22:11.025 Tuurlijk Schatje[14933:612161] DiskCookieStorage changing policy from 2 to 0, cookie file: file:///Users/ernst/Library/Developer/CoreSimulator/Devices/5E4E538E-222A-44DA-9E2F-E6392C97BCA9/data/Containers/Data/Application/1F6F3D5B-887C-47F2-8AF7-BA9E939DC9EF/Library/Cookies/Cookies.binarycookies
2015-10-02 10:22:11.140 Tuurlijk Schatje[14933:612161] Apache Cordova native platform version 3.9.1 is starting.
2015-10-02 10:22:11.140 Tuurlijk Schatje[14933:612161] Multi-tasking -> Device: YES, App: YES
2015-10-02 10:22:11.144 Tuurlijk Schatje[14933:612161] Unlimited access to network resources
2015-10-02 10:22:11.317 Tuurlijk Schatje[14933:612161] [CDVTimer][statusbar] 50.997019ms
2015-10-02 10:22:11.317 Tuurlijk Schatje[14933:612161] [CDVTimer][TotalPluginStartup] 51.282048ms
2015-10-02 10:22:11.768 Tuurlijk Schatje[14933:612161] Resetting plugins due to page load.
2015-10-02 10:22:11.887 Tuurlijk Schatje[14933:612161] Finished load of: file:///Users/ernst/Library/Developer/CoreSimulator/Devices/5E4E538E-222A-44DA-9E2F-E6392C97BCA9/data/Containers/Bundle/Application/D74504AD-9638-4F83-99A0-8F222FDACF78/Tuurlijk%20Schatje.app/www/index.html
2015-10-02 10:22:12.004 Tuurlijk Schatje[14933:612161] -[WebActionDisablingCALayerDelegate setBeingRemoved:]: unrecognized selector sent to instance 0x78fc7810
2015-10-02 10:22:12.014 Tuurlijk Schatje[14933:612161] *** WebKit discarded an uncaught exception in the webView:willRemoveScrollingLayer:withContentsLayer:forNode: delegate: <NSInvalidArgumentException> -[WebActionDisablingCALayerDelegate setBeingRemoved:]: unrecognized selector sent to instance 0x78fc7810
2015-10-02 10:22:17.014 Tuurlijk Schatje[14933:612161] Resetting plugins due to page load.
2015-10-02 10:22:17.078 Tuurlijk Schatje[14933:612161] Finished load of: file:///Users/ernst/Library/Developer/CoreSimulator/Devices/5E4E538E-222A-44DA-9E2F-E6392C97BCA9/data/Containers/Bundle/Application/D74504AD-9638-4F83-99A0-8F222FDACF78/Tuurlijk%20Schatje.app/www/index.html#
2015-10-02 10:31:01.760 Tuurlijk Schatje[15229:622199] DiskCookieStorage changing policy from 2 to 0, cookie file: file:///Users/ernst/Library/Developer/CoreSimulator/Devices/5E4E538E-222A-44DA-9E2F-E6392C97BCA9/data/Containers/Data/Application/8F6AA7C3-A9B0-4FEE-A5B0-A802E8A5A655/Library/Cookies/Cookies.binarycookies
2015-10-02 10:31:02.113 Tuurlijk Schatje[15229:622199] Apache Cordova native platform version 3.9.1 is starting.
2015-10-02 10:31:02.114 Tuurlijk Schatje[15229:622199] Multi-tasking -> Device: YES, App: YES
2015-10-02 10:31:02.134 Tuurlijk Schatje[15229:622199] Unlimited access to network resources
2015-10-02 10:31:02.748 Tuurlijk Schatje[15229:622199] [CDVTimer][statusbar] 160.345018ms
2015-10-02 10:31:02.749 Tuurlijk Schatje[15229:622199] [CDVTimer][localnotification] 0.386000ms
2015-10-02 10:31:02.749 Tuurlijk Schatje[15229:622199] [CDVTimer][localnotification] 0.011027ms
2015-10-02 10:31:02.750 Tuurlijk Schatje[15229:622199] [CDVTimer][TotalPluginStartup] 162.213981ms
2015-10-02 10:31:03.096 Tuurlijk Schatje[15229:622199] Resetting plugins due to page load.
2015-10-02 10:31:03.346 Tuurlijk Schatje[15229:622199] Finished load of: file:///Users/ernst/Library/Developer/CoreSimulator/Devices/5E4E538E-222A-44DA-9E2F-E6392C97BCA9/data/Containers/Bundle/Application/A1DCDD5B-8F7A-4410-8063-D8E869AA63D3/Tuurlijk%20Schatje.app/www/index.html
2015-10-02 10:34:57.425 Tuurlijk Schatje[15392:627151] DiskCookieStorage changing policy from 2 to 0, cookie file: file:///Users/ernst/Library/Developer/CoreSimulator/Devices/5E4E538E-222A-44DA-9E2F-E6392C97BCA9/data/Containers/Data/Application/FBB32B8B-36F9-4945-A7D1-6AE97355AC58/Library/Cookies/Cookies.binarycookies
2015-10-02 10:34:57.535 Tuurlijk Schatje[15392:627151] Apache Cordova native platform version 3.9.1 is starting.
2015-10-02 10:34:57.535 Tuurlijk Schatje[15392:627151] Multi-tasking -> Device: YES, App: YES
2015-10-02 10:34:57.538 Tuurlijk Schatje[15392:627151] Unlimited access to network resources
2015-10-02 10:34:57.697 Tuurlijk Schatje[15392:627151] [CDVTimer][statusbar] 39.134026ms
2015-10-02 10:34:57.698 Tuurlijk Schatje[15392:627151] [CDVTimer][localnotification] 0.468016ms
2015-10-02 10:34:57.698 Tuurlijk Schatje[15392:627151] [CDVTimer][localnotification] 0.007987ms
2015-10-02 10:34:57.698 Tuurlijk Schatje[15392:627151] [CDVTimer][TotalPluginStartup] 40.129006ms
2015-10-02 10:34:57.948 Tuurlijk Schatje[15392:627151] Resetting plugins due to page load.
2015-10-02 10:34:58.136 Tuurlijk Schatje[15392:627151] Finished load of: file:///Users/ernst/Library/Developer/CoreSimulator/Devices/5E4E538E-222A-44DA-9E2F-E6392C97BCA9/data/Containers/Bundle/Application/ADF0E4BD-A8B2-483D-9031-D86DEE245FB4/Tuurlijk%20Schatje.app/www/index.html
2015-10-02 10:35:20.353 Tuurlijk Schatje[15557:629023] DiskCookieStorage changing policy from 2 to 0, cookie file: file:///Users/ernst/Library/Developer/CoreSimulator/Devices/5E4E538E-222A-44DA-9E2F-E6392C97BCA9/data/Containers/Data/Application/2321FE8C-AD3D-4183-A6D1-0C982F0C6227/Library/Cookies/Cookies.binarycookies
2015-10-02 10:35:20.493 Tuurlijk Schatje[15557:629023] Apache Cordova native platform version 3.9.1 is starting.
2015-10-02 10:35:20.494 Tuurlijk Schatje[15557:629023] Multi-tasking -> Device: YES, App: YES
2015-10-02 10:35:20.496 Tuurlijk Schatje[15557:629023] Unlimited access to network resources
2015-10-02 10:35:20.666 Tuurlijk Schatje[15557:629023] [CDVTimer][statusbar] 55.442035ms
2015-10-02 10:35:20.666 Tuurlijk Schatje[15557:629023] [CDVTimer][localnotification] 0.073016ms
2015-10-02 10:35:20.666 Tuurlijk Schatje[15557:629023] [CDVTimer][localnotification] 0.009000ms
2015-10-02 10:35:20.666 Tuurlijk Schatje[15557:629023] [CDVTimer][TotalPluginStartup] 56.173027ms
2015-10-02 10:35:20.919 Tuurlijk Schatje[15557:629023] Resetting plugins due to page load.
2015-10-02 10:35:21.062 Tuurlijk Schatje[15557:629023] Finished load of: file:///Users/ernst/Library/Developer/CoreSimulator/Devices/5E4E538E-222A-44DA-9E2F-E6392C97BCA9/data/Containers/Bundle/Application/E820893C-A319-4625-BFA1-1F482C1FC4C0/Tuurlijk%20Schatje.app/www/index.html
2015-10-02 10:38:59.981 Tuurlijk Schatje[15557:634669] Terminating since there is no system app.
2015-10-02 10:38:59.988 Tuurlijk Schatje[15557:634681] Communications error: <OS_xpc_error: <error: 0x2d365f4> { count = 1, contents =
	"XPCErrorDescription" => <string: 0x2d3683c> { length = 22, contents = "Connection interrupted" }
}>
2015-10-02 10:39:20.775 Tuurlijk Schatje[15754:635401] DiskCookieStorage changing policy from 2 to 0, cookie file: file:///Users/ernst/Library/Developer/CoreSimulator/Devices/5E4E538E-222A-44DA-9E2F-E6392C97BCA9/data/Containers/Data/Application/83DD9447-1776-44F7-8DE6-1EC2E9E7B739/Library/Cookies/Cookies.binarycookies
2015-10-02 10:39:21.117 Tuurlijk Schatje[15754:635401] Apache Cordova native platform version 3.9.1 is starting.
2015-10-02 10:39:21.117 Tuurlijk Schatje[15754:635401] Multi-tasking -> Device: YES, App: YES
2015-10-02 10:39:21.139 Tuurlijk Schatje[15754:635401] Unlimited access to network resources
2015-10-02 10:39:21.711 Tuurlijk Schatje[15754:635401] [CDVTimer][statusbar] 146.540999ms
2015-10-02 10:39:21.712 Tuurlijk Schatje[15754:635401] [CDVTimer][localnotification] 0.446975ms
2015-10-02 10:39:21.712 Tuurlijk Schatje[15754:635401] [CDVTimer][localnotification] 0.019968ms
2015-10-02 10:39:21.712 Tuurlijk Schatje[15754:635401] [CDVTimer][TotalPluginStartup] 148.057997ms
2015-10-02 10:39:21.934 Tuurlijk Schatje[15754:635401] Resetting plugins due to page load.
2015-10-02 10:39:22.212 Tuurlijk Schatje[15754:635401] Finished load of: file:///Users/ernst/Library/Developer/CoreSimulator/Devices/5E4E538E-222A-44DA-9E2F-E6392C97BCA9/data/Containers/Bundle/Application/E16F952E-57D7-4B3C-B5E3-64C9D0CD19C0/Tuurlijk%20Schatje.app/www/index.html
2015-10-02 10:40:00.520 Tuurlijk Schatje[15754:635401] -[WebActionDisablingCALayerDelegate setBeingRemoved:]: unrecognized selector sent to instance 0x7bf96d80
2015-10-02 10:40:00.532 Tuurlijk Schatje[15754:635401] *** WebKit discarded an uncaught exception in the webView:willRemoveScrollingLayer:withContentsLayer:forNode: delegate: <NSInvalidArgumentException> -[WebActionDisablingCALayerDelegate setBeingRemoved:]: unrecognized selector sent to instance 0x7bf96d80
2015-10-02 10:40:00.533 Tuurlijk Schatje[15754:635401] -[WebActionDisablingCALayerDelegate setBeingRemoved:]: unrecognized selector sent to instance 0x7bf96d80
2015-10-02 10:40:00.533 Tuurlijk Schatje[15754:635401] *** WebKit discarded an uncaught exception in the webView:willRemoveScrollingLayer:withContentsLayer:forNode: delegate: <NSInvalidArgumentException> -[WebActionDisablingCALayerDelegate setBeingRemoved:]: unrecognized selector sent to instance 0x7bf96d80
2015-10-02 10:40:01.198 Tuurlijk Schatje[15754:635401] -[WebActionDisablingCALayerDelegate setBeingRemoved:]: unrecognized selector sent to instance 0x7bf96d80
2015-10-02 10:40:01.199 Tuurlijk Schatje[15754:635401] *** WebKit discarded an uncaught exception in the webView:willRemoveScrollingLayer:withContentsLayer:forNode: delegate: <NSInvalidArgumentException> -[WebActionDisablingCALayerDelegate setBeingRemoved:]: unrecognized selector sent to instance 0x7bf96d80
2015-10-02 10:40:01.199 Tuurlijk Schatje[15754:635401] -[WebActionDisablingCALayerDelegate setBeingRemoved:]: unrecognized selector sent to instance 0x7bf96d80
2015-10-02 10:40:01.199 Tuurlijk Schatje[15754:635401] *** WebKit discarded an uncaught exception in the webView:willRemoveScrollingLayer:withContentsLayer:forNode: delegate: <NSInvalidArgumentException> -[WebActionDisablingCALayerDelegate setBeingRemoved:]: unrecognized selector sent to instance 0x7bf96d80
2015-10-02 10:40:02.791 Tuurlijk Schatje[15754:635401] -[WebActionDisablingCALayerDelegate setBeingRemoved:]: unrecognized selector sent to instance 0x7bf96d80
2015-10-02 10:40:02.791 Tuurlijk Schatje[15754:635401] *** WebKit discarded an uncaught exception in the webView:willRemoveScrollingLayer:withContentsLayer:forNode: delegate: <NSInvalidArgumentException> -[WebActionDisablingCALayerDelegate setBeingRemoved:]: unrecognized selector sent to instance 0x7bf96d80
2015-10-02 10:40:02.791 Tuurlijk Schatje[15754:635401] -[WebActionDisablingCALayerDelegate setBeingRemoved:]: unrecognized selector sent to instance 0x7bf96d80
2015-10-02 10:40:02.791 Tuurlijk Schatje[15754:635401] *** WebKit discarded an uncaught exception in the webView:willRemoveScrollingLayer:withContentsLayer:forNode: delegate: <NSInvalidArgumentException> -[WebActionDisablingCALayerDelegate setBeingRemoved:]: unrecognized selector sent to instance 0x7bf96d80
2015-10-02 10:40:03.274 Tuurlijk Schatje[15754:635401] -[WebActionDisablingCALayerDelegate setBeingRemoved:]: unrecognized selector sent to instance 0x7bf96d80
2015-10-02 10:40:03.274 Tuurlijk Schatje[15754:635401] *** WebKit discarded an uncaught exception in the webView:willRemoveScrollingLayer:withContentsLayer:forNode: delegate: <NSInvalidArgumentException> -[WebActionDisablingCALayerDelegate setBeingRemoved:]: unrecognized selector sent to instance 0x7bf96d80
2015-10-02 10:40:03.274 Tuurlijk Schatje[15754:635401] -[WebActionDisablingCALayerDelegate setBeingRemoved:]: unrecognized selector sent to instance 0x7bf96d80
2015-10-02 10:40:03.275 Tuurlijk Schatje[15754:635401] *** WebKit discarded an uncaught exception in the webView:willRemoveScrollingLayer:withContentsLayer:forNode: delegate: <NSInvalidArgumentException> -[WebActionDisablingCALayerDelegate setBeingRemoved:]: unrecognized selector sent to instance 0x7bf96d80
2015-10-02 10:40:03.432 Tuurlijk Schatje[15754:635401] -[WebActionDisablingCALayerDelegate setBeingRemoved:]: unrecognized selector sent to instance 0x7bf96d80
2015-10-02 10:40:03.432 Tuurlijk Schatje[15754:635401] *** WebKit discarded an uncaught exception in the webView:willRemoveScrollingLayer:withContentsLayer:forNode: delegate: <NSInvalidArgumentException> -[WebActionDisablingCALayerDelegate setBeingRemoved:]: unrecognized selector sent to instance 0x7bf96d80
2015-10-02 10:40:03.432 Tuurlijk Schatje[15754:635401] -[WebActionDisablingCALayerDelegate setBeingRemoved:]: unrecognized selector sent to instance 0x7bf96d80
2015-10-02 10:40:03.432 Tuurlijk Schatje[15754:635401] *** WebKit discarded an uncaught exception in the webView:willRemoveScrollingLayer:withContentsLayer:forNode: delegate: <NSInvalidArgumentException> -[WebActionDisablingCALayerDelegate setBeingRemoved:]: unrecognized selector sent to instance 0x7bf96d80
2015-10-02 10:40:06.457 Tuurlijk Schatje[15754:635401] -[WebActionDisablingCALayerDelegate setBeingRemoved:]: unrecognized selector sent to instance 0x7bf96d80
2015-10-02 10:40:06.457 Tuurlijk Schatje[15754:635401] *** WebKit discarded an uncaught exception in the webView:willRemoveScrollingLayer:withContentsLayer:forNode: delegate: <NSInvalidArgumentException> -[WebActionDisablingCALayerDelegate setBeingRemoved:]: unrecognized selector sent to instance 0x7bf96d80
2015-10-02 10:40:06.457 Tuurlijk Schatje[15754:635401] -[WebActionDisablingCALayerDelegate setBeingRemoved:]: unrecognized selector sent to instance 0x7bf96d80
2015-10-02 10:40:06.457 Tuurlijk Schatje[15754:635401] *** WebKit discarded an uncaught exception in the webView:willRemoveScrollingLayer:withContentsLayer:forNode: delegate: <NSInvalidArgumentException> -[WebActionDisablingCALayerDelegate setBeingRemoved:]: unrecognized selector sent to instance 0x7bf96d80
2015-10-02 10:40:06.683 Tuurlijk Schatje[15754:635401] -[WebActionDisablingCALayerDelegate setBeingRemoved:]: unrecognized selector sent to instance 0x7bf96d80
2015-10-02 10:40:06.683 Tuurlijk Schatje[15754:635401] *** WebKit discarded an uncaught exception in the webView:willRemoveScrollingLayer:withContentsLayer:forNode: delegate: <NSInvalidArgumentException> -[WebActionDisablingCALayerDelegate setBeingRemoved:]: unrecognized selector sent to instance 0x7bf96d80
2015-10-02 10:40:06.684 Tuurlijk Schatje[15754:635401] -[WebActionDisablingCALayerDelegate setBeingRemoved:]: unrecognized selector sent to instance 0x7bf96d80
2015-10-02 10:40:06.684 Tuurlijk Schatje[15754:635401] *** WebKit discarded an uncaught exception in the webView:willRemoveScrollingLayer:withContentsLayer:forNode: delegate: <NSInvalidArgumentException> -[WebActionDisablingCALayerDelegate setBeingRemoved:]: unrecognized selector sent to instance 0x7bf96d80
2015-10-02 10:40:07.215 Tuurlijk Schatje[15754:635401] -[WebActionDisablingCALayerDelegate setBeingRemoved:]: unrecognized selector sent to instance 0x7bf96d80
2015-10-02 10:40:07.216 Tuurlijk Schatje[15754:635401] *** WebKit discarded an uncaught exception in the webView:willRemoveScrollingLayer:withContentsLayer:forNode: delegate: <NSInvalidArgumentException> -[WebActionDisablingCALayerDelegate setBeingRemoved:]: unrecognized selector sent to instance 0x7bf96d80
2015-10-02 10:40:07.216 Tuurlijk Schatje[15754:635401] -[WebActionDisablingCALayerDelegate setBeingRemoved:]: unrecognized selector sent to instance 0x7bf96d80
2015-10-02 10:40:07.216 Tuurlijk Schatje[15754:635401] *** WebKit discarded an uncaught exception in the webView:willRemoveScrollingLayer:withContentsLayer:forNode: delegate: <NSInvalidArgumentException> -[WebActionDisablingCALayerDelegate setBeingRemoved:]: unrecognized selector sent to instance 0x7bf96d80
2015-10-02 10:40:30.597 Tuurlijk Schatje[15754:635401] -[WebActionDisablingCALayerDelegate setBeingRemoved:]: unrecognized selector sent to instance 0x7bf96d80
2015-10-02 10:40:30.605 Tuurlijk Schatje[15754:635401] *** WebKit discarded an uncaught exception in the webView:willRemoveScrollingLayer:withContentsLayer:forNode: delegate: <NSInvalidArgumentException> -[WebActionDisablingCALayerDelegate setBeingRemoved:]: unrecognized selector sent to instance 0x7bf96d80
2015-10-02 10:40:30.606 Tuurlijk Schatje[15754:635401] -[WebActionDisablingCALayerDelegate setBeingRemoved:]: unrecognized selector sent to instance 0x7bf96d80
2015-10-02 10:40:30.607 Tuurlijk Schatje[15754:635401] *** WebKit discarded an uncaught exception in the webView:willRemoveScrollingLayer:withContentsLayer:forNode: delegate: <NSInvalidArgumentException> -[WebActionDisablingCALayerDelegate setBeingRemoved:]: unrecognized selector sent to instance 0x7bf96d80
2015-10-02 10:40:31.487 Tuurlijk Schatje[15754:635401] -[WebActionDisablingCALayerDelegate setBeingRemoved:]: unrecognized selector sent to instance 0x7bf96d80
2015-10-02 10:40:31.487 Tuurlijk Schatje[15754:635401] *** WebKit discarded an uncaught exception in the webView:willRemoveScrollingLayer:withContentsLayer:forNode: delegate: <NSInvalidArgumentException> -[WebActionDisablingCALayerDelegate setBeingRemoved:]: unrecognized selector sent to instance 0x7bf96d80
2015-10-02 10:40:31.488 Tuurlijk Schatje[15754:635401] -[WebActionDisablingCALayerDelegate setBeingRemoved:]: unrecognized selector sent to instance 0x7bf96d80
2015-10-02 10:40:31.488 Tuurlijk Schatje[15754:635401] *** WebKit discarded an uncaught exception in the webView:willRemoveScrollingLayer:withContentsLayer:forNode: delegate: <NSInvalidArgumentException> -[WebActionDisablingCALayerDelegate setBeingRemoved:]: unrecognized selector sent to instance 0x7bf96d80
2015-10-02 10:40:38.837 Tuurlijk Schatje[15754:635401] -[WebActionDisablingCALayerDelegate setBeingRemoved:]: unrecognized selector sent to instance 0x7bf96d80
2015-10-02 10:40:38.837 Tuurlijk Schatje[15754:635401] *** WebKit discarded an uncaught exception in the webView:willRemoveScrollingLayer:withContentsLayer:forNode: delegate: <NSInvalidArgumentException> -[WebActionDisablingCALayerDelegate setBeingRemoved:]: unrecognized selector sent to instance 0x7bf96d80
2015-10-02 10:40:38.837 Tuurlijk Schatje[15754:635401] -[WebActionDisablingCALayerDelegate setBeingRemoved:]: unrecognized selector sent to instance 0x7bf96d80
2015-10-02 10:40:38.838 Tuurlijk Schatje[15754:635401] *** WebKit discarded an uncaught exception in the webView:willRemoveScrollingLayer:withContentsLayer:forNode: delegate: <NSInvalidArgumentException> -[WebActionDisablingCALayerDelegate setBeingRemoved:]: unrecognized selector sent to instance 0x7bf96d80
2015-10-02 10:40:38.989 Tuurlijk Schatje[15754:635401] -[WebActionDisablingCALayerDelegate setBeingRemoved:]: unrecognized selector sent to instance 0x7bf96d80
2015-10-02 10:40:38.989 Tuurlijk Schatje[15754:635401] *** WebKit discarded an uncaught exception in the webView:willRemoveScrollingLayer:withContentsLayer:forNode: delegate: <NSInvalidArgumentException> -[WebActionDisablingCALayerDelegate setBeingRemoved:]: unrecognized selector sent to instance 0x7bf96d80
2015-10-02 10:40:38.989 Tuurlijk Schatje[15754:635401] -[WebActionDisablingCALayerDelegate setBeingRemoved:]: unrecognized selector sent to instance 0x7bf96d80
2015-10-02 10:40:38.989 Tuurlijk Schatje[15754:635401] *** WebKit discarded an uncaught exception in the webView:willRemoveScrollingLayer:withContentsLayer:forNode: delegate: <NSInvalidArgumentException> -[WebActionDisablingCALayerDelegate setBeingRemoved:]: unrecognized selector sent to instance 0x7bf96d80
2015-10-02 10:40:42.302 Tuurlijk Schatje[15754:635401] -[WebActionDisablingCALayerDelegate setBeingRemoved:]: unrecognized selector sent to instance 0x7bf96d80
2015-10-02 10:40:42.303 Tuurlijk Schatje[15754:635401] *** WebKit discarded an uncaught exception in the webView:willRemoveScrollingLayer:withContentsLayer:forNode: delegate: <NSInvalidArgumentException> -[WebActionDisablingCALayerDelegate setBeingRemoved:]: unrecognized selector sent to instance 0x7bf96d80
2015-10-02 10:40:42.303 Tuurlijk Schatje[15754:635401] -[WebActionDisablingCALayerDelegate setBeingRemoved:]: unrecognized selector sent to instance 0x7bf96d80
2015-10-02 10:40:42.303 Tuurlijk Schatje[15754:635401] *** WebKit discarded an uncaught exception in the webView:willRemoveScrollingLayer:withContentsLayer:forNode: delegate: <NSInvalidArgumentException> -[WebActionDisablingCALayerDelegate setBeingRemoved:]: unrecognized selector sent to instance 0x7bf96d80
2015-10-02 10:40:42.314 Tuurlijk Schatje[15754:635401] -[WebActionDisablingCALayerDelegate setBeingRemoved:]: unrecognized selector sent to instance 0x7bf96d80
2015-10-02 10:40:42.314 Tuurlijk Schatje[15754:635401] *** WebKit discarded an uncaught exception in the webView:willRemoveScrollingLayer:withContentsLayer:forNode: delegate: <NSInvalidArgumentException> -[WebActionDisablingCALayerDelegate setBeingRemoved:]: unrecognized selector sent to instance 0x7bf96d80
2015-10-02 10:40:42.314 Tuurlijk Schatje[15754:635401] -[WebActionDisablingCALayerDelegate setBeingRemoved:]: unrecognized selector sent to instance 0x7bf96d80
2015-10-02 10:40:42.315 Tuurlijk Schatje[15754:635401] *** WebKit discarded an uncaught exception in the webView:willRemoveScrollingLayer:withContentsLayer:forNode: delegate: <NSInvalidArgumentException> -[WebActionDisablingCALayerDelegate setBeingRemoved:]: unrecognized selector sent to instance 0x7bf96d80
2015-10-02 10:40:43.062 Tuurlijk Schatje[15754:635401] -[WebActionDisablingCALayerDelegate setBeingRemoved:]: unrecognized selector sent to instance 0x7bf96d80
2015-10-02 10:40:43.062 Tuurlijk Schatje[15754:635401] *** WebKit discarded an uncaught exception in the webView:willRemoveScrollingLayer:withContentsLayer:forNode: delegate: <NSInvalidArgumentException> -[WebActionDisablingCALayerDelegate setBeingRemoved:]: unrecognized selector sent to instance 0x7bf96d80
2015-10-02 10:40:43.063 Tuurlijk Schatje[15754:635401] -[WebActionDisablingCALayerDelegate setBeingRemoved:]: unrecognized selector sent to instance 0x7bf96d80
2015-10-02 10:40:43.063 Tuurlijk Schatje[15754:635401] *** WebKit discarded an uncaught exception in the webView:willRemoveScrollingLayer:withContentsLayer:forNode: delegate: <NSInvalidArgumentException> -[WebActionDisablingCALayerDelegate setBeingRemoved:]: unrecognized selector sent to instance 0x7bf96d80
2015-10-02 10:40:43.074 Tuurlijk Schatje[15754:635401] -[WebActionDisablingCALayerDelegate setBeingRemoved:]: unrecognized selector sent to instance 0x7bf96d80
2015-10-02 10:40:43.074 Tuurlijk Schatje[15754:635401] *** WebKit discarded an uncaught exception in the webView:willRemoveScrollingLayer:withContentsLayer:forNode: delegate: <NSInvalidArgumentException> -[WebActionDisablingCALayerDelegate setBeingRemoved:]: unrecognized selector sent to instance 0x7bf96d80
2015-10-02 10:40:43.074 Tuurlijk Schatje[15754:635401] -[WebActionDisablingCALayerDelegate setBeingRemoved:]: unrecognized selector sent to instance 0x7bf96d80
2015-10-02 10:40:43.074 Tuurlijk Schatje[15754:635401] *** WebKit discarded an uncaught exception in the webView:willRemoveScrollingLayer:withContentsLayer:forNode: delegate: <NSInvalidArgumentException> -[WebActionDisablingCALayerDelegate setBeingRemoved:]: unrecognized selector sent to instance 0x7bf96d80
2015-10-02 10:42:10.087 Tuurlijk Schatje[15910:637714] DiskCookieStorage changing policy from 2 to 0, cookie file: file:///Users/ernst/Library/Developer/CoreSimulator/Devices/5E4E538E-222A-44DA-9E2F-E6392C97BCA9/data/Containers/Data/Application/A880232A-69EA-418B-A6AC-6E352789B835/Library/Cookies/Cookies.binarycookies
2015-10-02 10:42:10.188 Tuurlijk Schatje[15910:637714] Apache Cordova native platform version 3.9.1 is starting.
2015-10-02 10:42:10.188 Tuurlijk Schatje[15910:637714] Multi-tasking -> Device: YES, App: YES
2015-10-02 10:42:10.191 Tuurlijk Schatje[15910:637714] Unlimited access to network resources
2015-10-02 10:42:10.340 Tuurlijk Schatje[15910:637714] [CDVTimer][statusbar] 45.018971ms
2015-10-02 10:42:10.340 Tuurlijk Schatje[15910:637714] [CDVTimer][localnotification] 0.092983ms
2015-10-02 10:42:10.341 Tuurlijk Schatje[15910:637714] [CDVTimer][localnotification] 0.011981ms
2015-10-02 10:42:10.341 Tuurlijk Schatje[15910:637714] [CDVTimer][TotalPluginStartup] 45.825005ms
2015-10-02 10:42:10.601 Tuurlijk Schatje[15910:637714] Resetting plugins due to page load.
2015-10-02 10:42:10.797 Tuurlijk Schatje[15910:637714] Finished load of: file:///Users/ernst/Library/Developer/CoreSimulator/Devices/5E4E538E-222A-44DA-9E2F-E6392C97BCA9/data/Containers/Bundle/Application/9ADC0954-5717-4CE1-8BEB-2A6D49EF16E3/Tuurlijk%20Schatje.app/www/index.html
2015-10-02 10:43:47.098 Tuurlijk Schatje[15910:638674] Terminating since there is no system app.
2015-10-02 10:44:02.081 Tuurlijk Schatje[16039:639377] DiskCookieStorage changing policy from 2 to 0, cookie file: file:///Users/ernst/Library/Developer/CoreSimulator/Devices/5E4E538E-222A-44DA-9E2F-E6392C97BCA9/data/Containers/Data/Application/5ED1466D-EBF2-4202-B282-87B83E633625/Library/Cookies/Cookies.binarycookies
2015-10-02 10:44:02.200 Tuurlijk Schatje[16039:639377] Apache Cordova native platform version 3.9.1 is starting.
2015-10-02 10:44:02.200 Tuurlijk Schatje[16039:639377] Multi-tasking -> Device: YES, App: YES
2015-10-02 10:44:02.203 Tuurlijk Schatje[16039:639377] Unlimited access to network resources
2015-10-02 10:44:02.435 Tuurlijk Schatje[16039:639377] [CDVTimer][statusbar] 41.929007ms
2015-10-02 10:44:02.435 Tuurlijk Schatje[16039:639377] [CDVTimer][localnotification] 0.093997ms
2015-10-02 10:44:02.435 Tuurlijk Schatje[16039:639377] [CDVTimer][localnotification] 0.009000ms
2015-10-02 10:44:02.436 Tuurlijk Schatje[16039:639377] [CDVTimer][TotalPluginStartup] 43.485999ms
2015-10-02 10:44:02.704 Tuurlijk Schatje[16039:639377] Resetting plugins due to page load.
2015-10-02 10:44:02.956 Tuurlijk Schatje[16039:639377] Finished load of: file:///Users/ernst/Library/Developer/CoreSimulator/Devices/5E4E538E-222A-44DA-9E2F-E6392C97BCA9/data/Containers/Bundle/Application/905E5181-7840-4DFD-BB14-7C6043689A80/Tuurlijk%20Schatje.app/www/index.html
2015-10-02 10:44:10.026 Tuurlijk Schatje[16039:639377] Resetting plugins due to page load.
2015-10-02 10:44:10.128 Tuurlijk Schatje[16039:639377] Finished load of: file:///Users/ernst/Library/Developer/CoreSimulator/Devices/5E4E538E-222A-44DA-9E2F-E6392C97BCA9/data/Containers/Bundle/Application/905E5181-7840-4DFD-BB14-7C6043689A80/Tuurlijk%20Schatje.app/www/index.html
2015-10-02 10:44:15.476 Tuurlijk Schatje[16039:639377] Resetting plugins due to page load.
2015-10-02 10:44:15.567 Tuurlijk Schatje[16039:639377] Finished load of: file:///Users/ernst/Library/Developer/CoreSimulator/Devices/5E4E538E-222A-44DA-9E2F-E6392C97BCA9/data/Containers/Bundle/Application/905E5181-7840-4DFD-BB14-7C6043689A80/Tuurlijk%20Schatje.app/www/index.html
2015-10-02 10:44:20.414 Tuurlijk Schatje[16039:639377] Resetting plugins due to page load.
2015-10-02 10:44:20.509 Tuurlijk Schatje[16039:639377] Finished load of: file:///Users/ernst/Library/Developer/CoreSimulator/Devices/5E4E538E-222A-44DA-9E2F-E6392C97BCA9/data/Containers/Bundle/Application/905E5181-7840-4DFD-BB14-7C6043689A80/Tuurlijk%20Schatje.app/www/index.html
2015-10-02 10:45:11.115 Tuurlijk Schatje[16039:640332] Terminating since there is no system app.
2015-10-02 10:45:34.485 Tuurlijk Schatje[16161:641407] DiskCookieStorage changing policy from 2 to 0, cookie file: file:///Users/ernst/Library/Developer/CoreSimulator/Devices/5E4E538E-222A-44DA-9E2F-E6392C97BCA9/data/Containers/Data/Application/24056A81-3601-4094-AFE5-364A0D68DEF9/Library/Cookies/Cookies.binarycookies
2015-10-02 10:45:34.601 Tuurlijk Schatje[16161:641407] Apache Cordova native platform version 3.9.1 is starting.
2015-10-02 10:45:34.602 Tuurlijk Schatje[16161:641407] Multi-tasking -> Device: YES, App: YES
2015-10-02 10:45:34.604 Tuurlijk Schatje[16161:641407] Unlimited access to network resources
2015-10-02 10:45:34.882 Tuurlijk Schatje[16161:641407] [CDVTimer][statusbar] 168.236017ms
2015-10-02 10:45:34.882 Tuurlijk Schatje[16161:641407] [CDVTimer][localnotification] 0.407040ms
2015-10-02 10:45:34.882 Tuurlijk Schatje[16161:641407] [CDVTimer][localnotification] 0.010014ms
2015-10-02 10:45:34.883 Tuurlijk Schatje[16161:641407] [CDVTimer][TotalPluginStartup] 169.313967ms
2015-10-02 10:45:35.073 Tuurlijk Schatje[16161:641407] Resetting plugins due to page load.
2015-10-02 10:45:35.292 Tuurlijk Schatje[16161:641407] Finished load of: file:///Users/ernst/Library/Developer/CoreSimulator/Devices/5E4E538E-222A-44DA-9E2F-E6392C97BCA9/data/Containers/Bundle/Application/5D6DFF4F-E45A-4DA5-9EDE-5BFB524D036C/Tuurlijk%20Schatje.app/www/index.html
2015-10-02 10:46:13.455 Tuurlijk Schatje[16161:641407] -[WebActionDisablingCALayerDelegate setBeingRemoved:]: unrecognized selector sent to instance 0x79eb01f0
2015-10-02 10:46:13.455 Tuurlijk Schatje[16161:641407] *** WebKit discarded an uncaught exception in the webView:willRemoveScrollingLayer:withContentsLayer:forNode: delegate: <NSInvalidArgumentException> -[WebActionDisablingCALayerDelegate setBeingRemoved:]: unrecognized selector sent to instance 0x79eb01f0
2015-10-02 10:46:18.531 Tuurlijk Schatje[16161:641407] Resetting plugins due to page load.
2015-10-02 10:46:18.606 Tuurlijk Schatje[16161:641407] Finished load of: file:///Users/ernst/Library/Developer/CoreSimulator/Devices/5E4E538E-222A-44DA-9E2F-E6392C97BCA9/data/Containers/Bundle/Application/5D6DFF4F-E45A-4DA5-9EDE-5BFB524D036C/Tuurlijk%20Schatje.app/www/index.html#
2015-10-02 10:50:22.452 Tuurlijk Schatje[16161:645538] Communications error: <OS_xpc_error: <error: 0x2de55f4> { count = 1, contents =
	"XPCErrorDescription" => <string: 0x2de583c> { length = 22, contents = "Connection interrupted" }
}>
2015-10-02 10:50:22.461 Tuurlijk Schatje[16161:645553] Terminating since there is no system app.
